{
    "errno": 0,
    "errmsg": "",
    "data": {
        "userData": {
            "count": 2271,
            "totalPages": 228,
            "pageSize": 10,
            "currentPage": 1,
            "data": [
                {
                    "id": 3317,
                    "nickname": "einblatt",
                    "name": "",
                    "username": "微信用户c21a7076-c11f-459a-a2fd-ff7c6076d7bf",
                    "password": "oLMM443JCKpwMpSmlYlOHgUnzMHI",
                    "gender": 1,
                    "birthday": 0,
                    "register_time": "2020-12-11 22:28:34",
                    "last_login_time": "2020-12-11 22:28:34",
                    "last_login_ip": "",
                    "mobile": "",
                    "register_ip": "",
                    "avatar": "https://thirdwx.qlogo.cn/mmopen/vi_32/Va2CgZbPaKH4oSElQJdnyOURdqLtUNX0Wl4OVYdK1a5d6x515zXfibPohmNkHSiayMGsRsos0Qn2cg44BvYeBibrw/132",
                    "weixin_openid": "oLMM443JCKpwMpSmlYlOHgUnzMHI",
                    "name_mobile": 0,
                    "country": "China",
                    "province": "Zhejiang",
                    "city": "Hangzhou"
                },
                {
                    "id": 3316,
                    "nickname": "阿白",
                    "name": "",
                    "username": "微信用户665b8a03-0afa-4dc5-9f61-c7498511ecff",
                    "password": "oLMM44xViVu7oV7pMcOLaTAP9p6Y",
                    "gender": 2,
                    "birthday": 0,
                    "register_time": "2020-12-11 15:21:16",
                    "last_login_time": "2020-12-11 15:21:16",
                    "last_login_ip": "",
                    "mobile": "",
                    "register_ip": "",
                    "avatar": "https://thirdwx.qlogo.cn/mmopen/vi_32/Q3auHgzwzM4WXODTmhvsic2mm0BNwVCeGUGRrGBUR0Dl6nXWoY4uhc5UwtiaaZ7IzHvEyVwcMvNiaBCjg45LBqdGg/132",
                    "weixin_openid": "oLMM44xViVu7oV7pMcOLaTAP9p6Y",
                    "name_mobile": 0,
                    "country": "Malaysia",
                    "province": "Selangor",
                    "city": "Sabak Bernam"
                },
                {
                    "id": 3315,
                    "nickname": "刘中沛",
                    "name": "",
                    "username": "微信用户eb0c10c3-a4a2-4089-a645-a5a95aff39fd",
                    "password": "oLMM447GL8_H-tCgUVaqAMKv9JbU",
                    "gender": 1,
                    "birthday": 0,
                    "register_time": "2020-12-11 10:18:02",
                    "last_login_time": "2020-12-11 10:18:02",
                    "last_login_ip": "",
                    "mobile": "",
                    "register_ip": "",
                    "avatar": "https://thirdwx.qlogo.cn/mmopen/vi_32/kzQl8USwTzvibabEW2uAF2zl3THwwquCyct4U4YKcrHUrDLjcQ3xuCicuwCoQxFCJfmB7gAGlYKypfrpKMC7Plpg/132",
                    "weixin_openid": "oLMM447GL8_H-tCgUVaqAMKv9JbU",
                    "name_mobile": 0,
                    "country": "China",
                    "province": "",
                    "city": ""
                },
                {
                    "id": 3314,
                    "nickname": "轩",
                    "name": "",
                    "username": "微信用户df2e004d-016a-4862-86f9-b51079c6df0b",
                    "password": "oLMM44-QJTUbtoz85Fvgy5Ui9hic",
                    "gender": 1,
                    "birthday": 0,
                    "register_time": "2020-12-11 09:02:13",
                    "last_login_time": "2020-12-11 09:02:13",
                    "last_login_ip": "",
                    "mobile": "",
                    "register_ip": "",
                    "avatar": "https://thirdwx.qlogo.cn/mmopen/vi_32/Q0j4TwGTfTLyGAwJaFicA7A8Dyo0UiclJTQrPR36MzB1G9DL2L4LE8DqP3dYGuV2cia6xXutrj8sVRxGr3lWcm3ag/132",
                    "weixin_openid": "oLMM44-QJTUbtoz85Fvgy5Ui9hic",
                    "name_mobile": 0,
                    "country": "China",
                    "province": "Guangdong",
                    "city": "Guangzhou"
                },
                {
                    "id": 3313,
                    "nickname": "",
                    "name": "",
                    "username": "微信用户cd941cae-e363-4ce9-8d53-fdd8426542fd",
                    "password": "oLMM44x28NwMCobLwHHus3XxBvcs",
                    "gender": 1,
                    "birthday": 0,
                    "register_time": "2020-12-10 17:06:36",
                    "last_login_time": "2020-12-10 17:06:36",
                    "last_login_ip": "",
                    "mobile": "",
                    "register_ip": "",
                    "avatar": "https://thirdwx.qlogo.cn/mmopen/vi_32/6qkmAEFnkBWFVgoXlBBVupO5Re2MIFVfLZR5Kia9iadXOKVZzGt0AiaEiaD0kDvXS19JOE9Q444mVeqic6ZOzgjYjyQ/132",
                    "weixin_openid": "oLMM44x28NwMCobLwHHus3XxBvcs",
                    "name_mobile": 0,
                    "country": "China",
                    "province": "Jiangxi",
                    "city": "Jingdezhen"
                },
                {
                    "id": 3312,
                    "nickname": "城市山泉订水-平台客服",
                    "name": "",
                    "username": "微信用户f41573e0-1e3c-4193-8282-af6c1113cc79",
                    "password": "oLMM440-ESAHVcmu2ee5IEOehNTg",
                    "gender": 1,
                    "birthday": 0,
                    "register_time": "2020-12-10 16:35:17",
                    "last_login_time": "2020-12-10 16:35:17",
                    "last_login_ip": "",
                    "mobile": "",
                    "register_ip": "",
                    "avatar": "https://thirdwx.qlogo.cn/mmopen/vi_32/Ba8EyPQQXmSVOpq7Uq0XJulkyXgh7bKYicJs79JEzkZb22lZg5ozwcsyicUVxBP2GMG7AzhylmJUicGt3ibJDQdEeg/132",
                    "weixin_openid": "oLMM440-ESAHVcmu2ee5IEOehNTg",
                    "name_mobile": 0,
                    "country": "China",
                    "province": "Guangdong",
                    "city": "Shenzhen"
                },
                {
                    "id": 3311,
                    "nickname": "林占雨",
                    "name": "",
                    "username": "微信用户a81ee57a-b259-49a5-8544-d2324d5ab13e",
                    "password": "oLMM44x235EiM8Eaql7WQVzSNHj8",
                    "gender": 1,
                    "birthday": 0,
                    "register_time": "2020-12-10 11:42:13",
                    "last_login_time": "2020-12-10 11:42:13",
                    "last_login_ip": "",
                    "mobile": "",
                    "register_ip": "",
                    "avatar": "https://thirdwx.qlogo.cn/mmopen/vi_32/zkd3alvsktrbljfClOAKLlxBqJJN7cw6rtEJWLlBRJHL321baJiakyGkkFGOgCWH2uudOuaDXAy4u9GiaOjRet7g/132",
                    "weixin_openid": "oLMM44x235EiM8Eaql7WQVzSNHj8",
                    "name_mobile": 0,
                    "country": "China",
                    "province": "Hebei",
                    "city": "Cangzhou"
                },
                {
                    "id": 3310,
                    "nickname": "Denny",
                    "name": "",
                    "username": "微信用户23236c82-da09-40f4-9f90-c9df7091a12f",
                    "password": "oLMM44-aOPlwy4877dbp2Gv13H-c",
                    "gender": 1,
                    "birthday": 0,
                    "register_time": "2020-12-10 09:34:14",
                    "last_login_time": "2020-12-10 09:34:14",
                    "last_login_ip": "",
                    "mobile": "",
                    "register_ip": "",
                    "avatar": "https://thirdwx.qlogo.cn/mmopen/vi_32/jb5Bz5KliachQeGKsrWD4rrNM5GmPY5vh11tl5tHq1Hz4UQib9bPJ4P7HXuCiathCpI1tldm4RiaoIC1P6MfUfqFIw/132",
                    "weixin_openid": "oLMM44-aOPlwy4877dbp2Gv13H-c",
                    "name_mobile": 0,
                    "country": "China",
                    "province": "Fujian",
                    "city": "Xiamen"
                },
                {
                    "id": 3309,
                    "nickname": "欢乐马",
                    "name": "",
                    "username": "微信用户c546452f-f4e7-4161-85d7-dc04e20d938b",
                    "password": "oLMM44xX9TgvZvvWY6DJdo-mfv18",
                    "gender": 1,
                    "birthday": 0,
                    "register_time": "2020-12-10 00:33:48",
                    "last_login_time": "2020-12-10 00:33:48",
                    "last_login_ip": "",
                    "mobile": "",
                    "register_ip": "",
                    "avatar": "https://thirdwx.qlogo.cn/mmopen/vi_32/Q3auHgzwzM5M3OCkNpRN0tBjr9swpNLf1wQO2ibXia6LeDFGGVlI06w0UMUOTyricE5RBGnwvMBzvDtKTXfaR3ia8g/132",
                    "weixin_openid": "oLMM44xX9TgvZvvWY6DJdo-mfv18",
                    "name_mobile": 0,
                    "country": "China",
                    "province": "Guangdong",
                    "city": "Shantou"
                },
                {
                    "id": 3308,
                    "nickname": "等风来",
                    "name": "",
                    "username": "微信用户d7738947-799f-415e-a715-db9c008917a5",
                    "password": "oLMM445K2RTOPN2Qgy9eVUHPLp_Q",
                    "gender": 1,
                    "birthday": 0,
                    "register_time": "2020-12-09 19:03:08",
                    "last_login_time": "2020-12-09 19:03:08",
                    "last_login_ip": "",
                    "mobile": "",
                    "register_ip": "",
                    "avatar": "https://thirdwx.qlogo.cn/mmopen/vi_32/Ft4Na7icnz5mGfZUYKia3Wha9EqP2mXGtRunUKJ2FuoHss75FMdZlZqNWwkQnUAGIJaXq3LUj25bBb792UmgmwHg/132",
                    "weixin_openid": "oLMM445K2RTOPN2Qgy9eVUHPLp_Q",
                    "name_mobile": 0,
                    "country": "",
                    "province": "",
                    "city": ""
                }
            ]
        }
    }
}